^E:\SCHOOL\ASM\구구단\구구단\MAIN.CPP
D:\VS 2013\VC\BIN\1033\CLUI.DLL
C:\WINDOWS\GLOBALIZATION\SORTING\SORTDEFAULT.NLS
C:\WINDOWS\SYSTEM32\TZRES.DLL
D:\VS 2013\VC\INCLUDE\STDIO.H
D:\VS 2013\VC\INCLUDE\CRTDEFS.H
D:\VS 2013\VC\INCLUDE\SAL.H
D:\VS 2013\VC\INCLUDE\CONCURRENCYSAL.H
D:\VS 2013\VC\INCLUDE\VADEFS.H
D:\VS 2013\VC\INCLUDE\SWPRINTF.INL
D:\VS 2013\VC\BIN\MSPDBSRV.EXE
D:\VS 2013\VC\INCLUDE\INTTYPES.H
D:\VS 2013\VC\INCLUDE\STDINT.H
^D:\ASM-STUDY\구구단\구구단\MAIN.CPP
C:\WINDOWS\GLOBALIZATION\SORTING\SORTDEFAULT.NLS
M:\TOOL\DEVELOP\VS 2015\VC\BIN\1042\CLUI.DLL
M:\TOOL\DEVELOP\VS 2015\VC\BIN\MSPDBSRV.EXE
C:\WINDOWS\SYSTEM32\TZRES.DLL
C:\PROGRAM FILES (X86)\WINDOWS KITS\10\INCLUDE\10.0.10240.0\UCRT\STDIO.H
C:\PROGRAM FILES (X86)\WINDOWS KITS\10\INCLUDE\10.0.10240.0\UCRT\CORECRT.H
M:\TOOL\DEVELOP\VS 2015\VC\INCLUDE\VCRUNTIME.H
M:\TOOL\DEVELOP\VS 2015\VC\INCLUDE\SAL.H
M:\TOOL\DEVELOP\VS 2015\VC\INCLUDE\CONCURRENCYSAL.H
M:\TOOL\DEVELOP\VS 2015\VC\INCLUDE\VADEFS.H
C:\PROGRAM FILES (X86)\WINDOWS KITS\10\INCLUDE\10.0.10240.0\UCRT\CORECRT_WSTDIO.H
C:\PROGRAM FILES (X86)\WINDOWS KITS\10\INCLUDE\10.0.10240.0\UCRT\CORECRT_STDIO_CONFIG.H
