^E:\SCHOOL\ASM\구구단\구구단\DEBUG\MAIN.OBJ
/OUT:"E:\SCHOOL\ASM\구구단\DEBUG\구구단.EXE" /INCREMENTAL /NOLOGO kernel32.lib user32.lib gdi32.lib winspool.lib comdlg32.lib advapi32.lib shell32.lib ole32.lib oleaut32.lib uuid.lib odbc32.lib odbccp32.lib /MANIFEST /MANIFESTUAC:"level='asInvoker' uiAccess='false'" /manifest:embed /DEBUG /PDB:"E:\SCHOOL\ASM\구구단\DEBUG\구구단.PDB" /SUBSYSTEM:CONSOLE /TLBID:1 /DYNAMICBASE /NXCOMPAT /IMPLIB:"E:\SCHOOL\ASM\구구단\DEBUG\구구단.LIB" /MACHINE:X86 DEBUG\MAIN.OBJ
^D:\ASM-STUDY\구구단\구구단\DEBUG\MAIN.OBJ
/OUT:"D:\ASM-STUDY\구구단\DEBUG\구구단.EXE" /INCREMENTAL /NOLOGO KERNEL32.LIB USER32.LIB GDI32.LIB WINSPOOL.LIB COMDLG32.LIB ADVAPI32.LIB SHELL32.LIB OLE32.LIB OLEAUT32.LIB UUID.LIB ODBC32.LIB ODBCCP32.LIB /MANIFEST /MANIFESTUAC:"level='asInvoker' uiAccess='false'" /manifest:embed /Debug /PDB:"D:\ASM-STUDY\구구단\DEBUG\구구단.PDB" /SUBSYSTEM:CONSOLE /TLBID:1 /DYNAMICBASE /NXCOMPAT /IMPLIB:"D:\ASM-STUDY\구구단\DEBUG\구구단.LIB" /MACHINE:X86 DEBUG\MAIN.OBJ
